{
  "$type": "Comindware.Platform.Contracts.FlowActivityModel, Comindware.Platform.Contracts",
  "GlobalAlias": {
    "$type": "Comindware.Platform.Contracts.GlobalAlias, Comindware.Platform.Contracts",
    "Type": "Activity",
    "Owner": "Prokhozhdenieinstruktazheyimedosmotra",
    "Alias": "flow1"
  },
  "TargetActivity": {
    "$type": "Comindware.Platform.Contracts.ConnectorModel, Comindware.Platform.Contracts",
    "Target": {
      "$type": "Comindware.Platform.Contracts.GlobalAlias, Comindware.Platform.Contracts",
      "Type": "Activity",
      "Owner": "Prokhozhdenieinstruktazheyimedosmotra",
      "Alias": "parallelGate1"
    },
    "TargetConnectorIndex": 30
  },
  "SourceActivity": {
    "$type": "Comindware.Platform.Contracts.ConnectorModel, Comindware.Platform.Contracts",
    "Target": {
      "$type": "Comindware.Platform.Contracts.GlobalAlias, Comindware.Platform.Contracts",
      "Type": "Activity",
      "Owner": "Prokhozhdenieinstruktazheyimedosmotra",
      "Alias": "noneStartEvent1"
    },
    "TargetConnectorIndex": 10
  },
  "Points": {
    "$type": "Comindware.Platform.Contracts.VectorModel[], Comindware.Platform.Contracts",
    "$values": [
      {
        "$type": "Comindware.Platform.Contracts.VectorModel, Comindware.Platform.Contracts",
        "X": -100.0,
        "Y": 200.0
      },
      {
        "$type": "Comindware.Platform.Contracts.VectorModel, Comindware.Platform.Contracts",
        "X": -80.0,
        "Y": 200.0
      },
      {
        "$type": "Comindware.Platform.Contracts.VectorModel, Comindware.Platform.Contracts",
        "X": -5.0,
        "Y": 200.0
      },
      {
        "$type": "Comindware.Platform.Contracts.VectorModel, Comindware.Platform.Contracts",
        "X": 15.0,
        "Y": 200.0
      }
    ]
  },
  "SequenceDefinition": {
    "$type": "Comindware.Platform.Contracts.SequenceFlowDefinitionModel, Comindware.Platform.Contracts",
    "IsDefault": false
  },
  "IsTitleSet": false,
  "Position": {
    "$type": "Comindware.Platform.Contracts.VectorModel, Comindware.Platform.Contracts",
    "X": 462.0,
    "Y": 340.0
  },
  "Size": {
    "$type": "Comindware.Platform.Contracts.DimensionsModel, Comindware.Platform.Contracts",
    "Width": 0.0,
    "Height": 0.0
  },
  "Owner": {
    "$type": "Comindware.Platform.Contracts.GlobalAlias, Comindware.Platform.Contracts",
    "Type": "Undefined"
  },
  "OwnerEmbeddedProcessActivityAlias": {
    "$type": "Comindware.Platform.Contracts.GlobalAlias, Comindware.Platform.Contracts",
    "Type": "Undefined"
  },
  "MountedOnAlias": {
    "$type": "Comindware.Platform.Contracts.GlobalAlias, Comindware.Platform.Contracts",
    "Type": "Undefined"
  },
  "Type": "ExecutionFlow"
}