{
  "$type": "Comindware.Platform.Contracts.DocumentExportTemplateModel, Comindware.Platform.Contracts",
  "GlobalAlias": {
    "$type": "Comindware.Platform.Contracts.GlobalAlias, Comindware.Platform.Contracts",
    "Type": "ExportTemplate",
    "Owner": "Priemynarabotu",
    "Alias": "agreement"
  },
  "Name": "agreement",
  "ExportSourceTemplate": {
    "$type": "Comindware.Platform.Contracts.ExportSourceTemplateFromDocument, Comindware.Platform.Contracts",
    "Type": "Document",
    "FileName": "WA - ШАБЛОН Трудового договора по основному месту работы (для портала НИЧ) 2021-07-13.docx",
    "FileType": "Word",
    "StreamId": "cmw.xmlns:.stream:///.13452b638dea4207adf7a209ce6c44f4"
  },
  "OutputFileNameTemplate": {
    "$type": "Comindware.Platform.Contracts.OutputFileNameTemplateFromRule, Comindware.Platform.Contracts",
    "Type": "Rule",
    "RuleId": "rule.26",
    "Expression": "FORMAT(\"{0}_{1:yyyy-MM-dd}_Трудовой_договор_основное_место_работы_НИЧ\", LIST(CONCAT(LIST($KandidatRef->Familiya, \"_\", $KandidatRef->Imya, \"_\", $KandidatRef->Otchestvo)), NOW()))"
  },
  "ExportAsPdf": false
}