{
  "$type": "Comindware.Platform.Contracts.TemplateInfoModel, Comindware.Platform.Contracts",
  "Name": "Выполнение командировки",
  "Description": "Заявки на командировку",
  "GlobalAlias": {
    "$type": "Comindware.Platform.Contracts.GlobalAlias, Comindware.Platform.Contracts",
    "Type": "ProcessTemplate",
    "Alias": "Vypolneniekomandirovki"
  },
  "IsDisabled": true,
  "RelatedTemplate": {
    "$type": "System.Nullable`1[[Comindware.Platform.Contracts.GlobalAlias, Comindware.Platform.Contracts]], mscorlib",
    "Type": "RecordTemplate",
    "Alias": "Komandirovkisotrudnikov"
  },
  "IsReferenceData": false,
  "IsTransferable": false
}