{
  "$type": "Comindware.Platform.Contracts.FlowActivityModel, Comindware.Platform.Contracts",
  "GlobalAlias": {
    "$type": "Comindware.Platform.Contracts.GlobalAlias, Comindware.Platform.Contracts",
    "Type": "Activity",
    "Owner": "Soglasovaniekomandirovki",
    "Alias": "flow4"
  },
  "TargetActivity": {
    "$type": "Comindware.Platform.Contracts.ConnectorModel, Comindware.Platform.Contracts",
    "Target": {
      "$type": "Comindware.Platform.Contracts.GlobalAlias, Comindware.Platform.Contracts",
      "Type": "Activity",
      "Owner": "Soglasovaniekomandirovki",
      "Alias": "noneEndEvent2"
    },
    "TargetConnectorIndex": 0
  },
  "SourceActivity": {
    "$type": "Comindware.Platform.Contracts.ConnectorModel, Comindware.Platform.Contracts",
    "Target": {
      "$type": "Comindware.Platform.Contracts.GlobalAlias, Comindware.Platform.Contracts",
      "Type": "Activity",
      "Owner": "Soglasovaniekomandirovki",
      "Alias": "exclusiveGate1"
    },
    "TargetConnectorIndex": 20
  },
  "Points": {
    "$type": "Comindware.Platform.Contracts.VectorModel[], Comindware.Platform.Contracts",
    "$values": [
      {
        "$type": "Comindware.Platform.Contracts.VectorModel, Comindware.Platform.Contracts",
        "X": -23.0,
        "Y": 23.0
      },
      {
        "$type": "Comindware.Platform.Contracts.VectorModel, Comindware.Platform.Contracts",
        "X": -23.0,
        "Y": 43.0
      },
      {
        "$type": "Comindware.Platform.Contracts.VectorModel, Comindware.Platform.Contracts",
        "X": -23.0,
        "Y": 78.0
      },
      {
        "$type": "Comindware.Platform.Contracts.VectorModel, Comindware.Platform.Contracts",
        "X": -23.0,
        "Y": 98.0
      }
    ]
  },
  "SequenceDefinition": {
    "$type": "Comindware.Platform.Contracts.SequenceFlowDefinitionModel, Comindware.Platform.Contracts",
    "IsDefault": false,
    "Condition": {
      "$type": "Comindware.Platform.Contracts.ConditionRuleModel, Comindware.Platform.Contracts",
      "Type": "Condition",
      "Definition": {
        "$type": "Comindware.Platform.Contracts.ExpressionRuleDefinitionModel, Comindware.Platform.Contracts",
        "Expression": "$ReshenieRef->Kod == \"makechanges\"",
        "Type": "Expression"
      }
    }
  },
  "IsTitleSet": false,
  "Position": {
    "$type": "Comindware.Platform.Contracts.VectorModel, Comindware.Platform.Contracts",
    "X": 723.0,
    "Y": 200.0
  },
  "Size": {
    "$type": "Comindware.Platform.Contracts.DimensionsModel, Comindware.Platform.Contracts",
    "Width": 0.0,
    "Height": 0.0
  },
  "Owner": {
    "$type": "Comindware.Platform.Contracts.GlobalAlias, Comindware.Platform.Contracts",
    "Type": "Undefined"
  },
  "OwnerEmbeddedProcessActivityAlias": {
    "$type": "Comindware.Platform.Contracts.GlobalAlias, Comindware.Platform.Contracts",
    "Type": "Undefined"
  },
  "MountedOnAlias": {
    "$type": "Comindware.Platform.Contracts.GlobalAlias, Comindware.Platform.Contracts",
    "Type": "Undefined"
  },
  "Type": "ExecutionFlow"
}