{
  "$type": "Comindware.Platform.Contracts.AttributeModel, Comindware.Platform.Contracts",
  "GlobalAlias": {
    "$type": "Comindware.Platform.Contracts.GlobalAlias, Comindware.Platform.Contracts",
    "Type": "Attribute",
    "Owner": "Grazhdanstvo",
    "Alias": "Strana"
  },
  "Type": "String",
  "Format": "PlainText",
  "Name": "Страна",
  "Description": "Страна гражданства",
  "IsSystem": false,
  "IsDisabled": false,
  "IsUnique": true,
  "IsIndexed": true,
  "IsTracked": false,
  "IsMultiValue": false,
  "IsTitle": true,
  "IsMandatory": false,
  "IsOwnership": false,
  "IsCalculated": false,
  "InstanceGlobalAlias": {
    "$type": "Comindware.Platform.Contracts.GlobalAlias, Comindware.Platform.Contracts",
    "Type": "Undefined"
  },
  "ImageColorType": "Original",
  "ImagePreserveAspectRatio": false
}