{
  "$type": "Comindware.Platform.Contracts.AttributeModel, Comindware.Platform.Contracts",
  "GlobalAlias": {
    "$type": "Comindware.Platform.Contracts.GlobalAlias, Comindware.Platform.Contracts",
    "Type": "Attribute",
    "Owner": "Zayavkinakomandirovku",
    "Alias": "Summadopraskhodov"
  },
  "Type": "Decimal",
  "Format": "Undefined",
  "Name": "Сумма доп.расходов",
  "IsSystem": false,
  "IsDisabled": false,
  "IsUnique": false,
  "IsIndexed": false,
  "IsTracked": false,
  "IsDigitGrouping": false,
  "IsMultiValue": false,
  "IsTitle": false,
  "IsMandatory": false,
  "IsOwnership": false,
  "IsCalculated": true,
  "Expression": "SUM((from a in db->Komandirovkisotrudnikov where a->Zayavkanakomandirovku == $id && a->Bylidopraskhody == true select a->Summaraskhodov))",
  "InstanceGlobalAlias": {
    "$type": "Comindware.Platform.Contracts.GlobalAlias, Comindware.Platform.Contracts",
    "Type": "Undefined"
  },
  "ImageColorType": "Original",
  "ImagePreserveAspectRatio": false,
  "DecimalPlaces": 2
}