{
  "$type": "Comindware.Platform.Contracts.FormModel, Comindware.Platform.Contracts",
  "GlobalAlias": {
    "$type": "Comindware.Platform.Contracts.GlobalAlias, Comindware.Platform.Contracts",
    "Type": "Form",
    "Owner": "Zayavkinakomandirovku",
    "Alias": "form69566"
  },
  "Type": "PublicForm",
  "IsDefault": false,
  "Root": {
    "$type": "Comindware.Platform.Contracts.VerticalLayoutModel, Comindware.Platform.Contracts",
    "Rows": {
      "$type": "System.Collections.Generic.List`1[[Comindware.Platform.Contracts.FormComponentModel, Comindware.Platform.Contracts]], mscorlib",
      "$values": [
        {
          "$type": "Comindware.Platform.Contracts.FieldComponentModel, Comindware.Platform.Contracts",
          "Label": {
            "$type": "Comindware.Platform.Contracts.LabelModel, Comindware.Platform.Contracts",
            "Hidden": false,
            "Alignment": "Top",
            "Text": {
              "$type": "Comindware.Platform.Contracts.LocalizedTextModel, Comindware.Platform.Contracts",
              "En": "История согласований",
              "De": "История согласований",
              "Ru": "История согласований"
            }
          },
          "FieldType": "Table",
          "Placeholder": {
            "$type": "Comindware.Platform.Contracts.LocalizedTextModel, Comindware.Platform.Contracts"
          },
          "HelpText": {
            "$type": "Comindware.Platform.Contracts.LocalizedTextModel, Comindware.Platform.Contracts"
          },
          "PropertyPath": {
            "$type": "Comindware.Platform.Contracts.GlobalAlias[], Comindware.Platform.Contracts",
            "$values": [
              {
                "$type": "Comindware.Platform.Contracts.GlobalAlias, Comindware.Platform.Contracts",
                "Type": "Attribute",
                "Owner": "Zayavkinakomandirovku",
                "Alias": "Istoriyasoglasovaniy"
              }
            ]
          },
          "EditorType": "Radio",
          "CreationType": "None",
          "RemovalType": "None",
          "EditType": "None",
          "Columns": {
            "$type": "System.Collections.Generic.List`1[[Comindware.Platform.Contracts.FieldComponentModel, Comindware.Platform.Contracts]], mscorlib",
            "$values": [
              {
                "$type": "Comindware.Platform.Contracts.FieldComponentModel, Comindware.Platform.Contracts",
                "Label": {
                  "$type": "Comindware.Platform.Contracts.LabelModel, Comindware.Platform.Contracts",
                  "Hidden": false,
                  "Alignment": "Undefined",
                  "Text": {
                    "$type": "Comindware.Platform.Contracts.LocalizedTextModel, Comindware.Platform.Contracts",
                    "En": "Руководитель",
                    "De": "Руководитель",
                    "Ru": "Руководитель"
                  }
                },
                "FieldType": "TableColumn",
                "Placeholder": {
                  "$type": "Comindware.Platform.Contracts.LocalizedTextModel, Comindware.Platform.Contracts"
                },
                "HelpText": {
                  "$type": "Comindware.Platform.Contracts.LocalizedTextModel, Comindware.Platform.Contracts"
                },
                "PropertyPath": {
                  "$type": "Comindware.Platform.Contracts.GlobalAlias[], Comindware.Platform.Contracts",
                  "$values": [
                    {
                      "$type": "Comindware.Platform.Contracts.GlobalAlias, Comindware.Platform.Contracts",
                      "Type": "Attribute",
                      "Owner": "Soglasovaniyakomandirovok",
                      "Alias": "Rukovoditel"
                    }
                  ]
                },
                "EditorType": "Radio",
                "CreationType": "None",
                "RemovalType": "None",
                "EditType": "None",
                "ChildPropertyAlias": {
                  "$type": "Comindware.Platform.Contracts.GlobalAlias, Comindware.Platform.Contracts",
                  "Type": "Undefined"
                },
                "OrderPropertyAlias": {
                  "$type": "Comindware.Platform.Contracts.GlobalAlias, Comindware.Platform.Contracts",
                  "Type": "Undefined"
                },
                "NumberPropertyAlias": {
                  "$type": "Comindware.Platform.Contracts.GlobalAlias, Comindware.Platform.Contracts",
                  "Type": "Undefined"
                },
                "PrecedentPropertyAlias": {
                  "$type": "Comindware.Platform.Contracts.GlobalAlias, Comindware.Platform.Contracts",
                  "Type": "Undefined"
                },
                "SortingDirection": "Asc",
                "PopupFormAlias": {
                  "$type": "Comindware.Platform.Contracts.GlobalAlias, Comindware.Platform.Contracts",
                  "Type": "Undefined"
                },
                "AllowEdit": false,
                "GlobalAlias": {
                  "$type": "Comindware.Platform.Contracts.GlobalAlias, Comindware.Platform.Contracts",
                  "Type": "FormComponent",
                  "Alias": "Istoriyasoglasovaniy2_Rukovoditel"
                },
                "AccessType": "Editable",
                "Width": 400,
                "Type": "FieldComponent"
              },
              {
                "$type": "Comindware.Platform.Contracts.FieldComponentModel, Comindware.Platform.Contracts",
                "Label": {
                  "$type": "Comindware.Platform.Contracts.LabelModel, Comindware.Platform.Contracts",
                  "Hidden": false,
                  "Alignment": "Undefined",
                  "Text": {
                    "$type": "Comindware.Platform.Contracts.LocalizedTextModel, Comindware.Platform.Contracts",
                    "En": "Решение",
                    "De": "Решение",
                    "Ru": "Решение"
                  }
                },
                "FieldType": "TableColumn",
                "Placeholder": {
                  "$type": "Comindware.Platform.Contracts.LocalizedTextModel, Comindware.Platform.Contracts"
                },
                "HelpText": {
                  "$type": "Comindware.Platform.Contracts.LocalizedTextModel, Comindware.Platform.Contracts"
                },
                "PropertyPath": {
                  "$type": "Comindware.Platform.Contracts.GlobalAlias[], Comindware.Platform.Contracts",
                  "$values": [
                    {
                      "$type": "Comindware.Platform.Contracts.GlobalAlias, Comindware.Platform.Contracts",
                      "Type": "Attribute",
                      "Owner": "Soglasovaniyakomandirovok",
                      "Alias": "Reshenie"
                    }
                  ]
                },
                "EditorType": "Radio",
                "CreationType": "None",
                "RemovalType": "None",
                "EditType": "None",
                "ChildPropertyAlias": {
                  "$type": "Comindware.Platform.Contracts.GlobalAlias, Comindware.Platform.Contracts",
                  "Type": "Undefined"
                },
                "OrderPropertyAlias": {
                  "$type": "Comindware.Platform.Contracts.GlobalAlias, Comindware.Platform.Contracts",
                  "Type": "Undefined"
                },
                "NumberPropertyAlias": {
                  "$type": "Comindware.Platform.Contracts.GlobalAlias, Comindware.Platform.Contracts",
                  "Type": "Undefined"
                },
                "PrecedentPropertyAlias": {
                  "$type": "Comindware.Platform.Contracts.GlobalAlias, Comindware.Platform.Contracts",
                  "Type": "Undefined"
                },
                "SortingDirection": "Asc",
                "PopupFormAlias": {
                  "$type": "Comindware.Platform.Contracts.GlobalAlias, Comindware.Platform.Contracts",
                  "Type": "Undefined"
                },
                "AllowEdit": false,
                "GlobalAlias": {
                  "$type": "Comindware.Platform.Contracts.GlobalAlias, Comindware.Platform.Contracts",
                  "Type": "FormComponent",
                  "Alias": "Istoriyasoglasovaniy2_Reshenie"
                },
                "AccessType": "Editable",
                "Width": 200,
                "Type": "FieldComponent"
              },
              {
                "$type": "Comindware.Platform.Contracts.FieldComponentModel, Comindware.Platform.Contracts",
                "Label": {
                  "$type": "Comindware.Platform.Contracts.LabelModel, Comindware.Platform.Contracts",
                  "Hidden": false,
                  "Alignment": "Undefined",
                  "Text": {
                    "$type": "Comindware.Platform.Contracts.LocalizedTextModel, Comindware.Platform.Contracts",
                    "En": "Комментарий",
                    "De": "Комментарий",
                    "Ru": "Комментарий"
                  }
                },
                "FieldType": "TableColumn",
                "Placeholder": {
                  "$type": "Comindware.Platform.Contracts.LocalizedTextModel, Comindware.Platform.Contracts"
                },
                "HelpText": {
                  "$type": "Comindware.Platform.Contracts.LocalizedTextModel, Comindware.Platform.Contracts"
                },
                "PropertyPath": {
                  "$type": "Comindware.Platform.Contracts.GlobalAlias[], Comindware.Platform.Contracts",
                  "$values": [
                    {
                      "$type": "Comindware.Platform.Contracts.GlobalAlias, Comindware.Platform.Contracts",
                      "Type": "Attribute",
                      "Owner": "Soglasovaniyakomandirovok",
                      "Alias": "Kommentariy"
                    }
                  ]
                },
                "EditorType": "Radio",
                "CreationType": "None",
                "RemovalType": "None",
                "EditType": "None",
                "ChildPropertyAlias": {
                  "$type": "Comindware.Platform.Contracts.GlobalAlias, Comindware.Platform.Contracts",
                  "Type": "Undefined"
                },
                "OrderPropertyAlias": {
                  "$type": "Comindware.Platform.Contracts.GlobalAlias, Comindware.Platform.Contracts",
                  "Type": "Undefined"
                },
                "NumberPropertyAlias": {
                  "$type": "Comindware.Platform.Contracts.GlobalAlias, Comindware.Platform.Contracts",
                  "Type": "Undefined"
                },
                "PrecedentPropertyAlias": {
                  "$type": "Comindware.Platform.Contracts.GlobalAlias, Comindware.Platform.Contracts",
                  "Type": "Undefined"
                },
                "SortingDirection": "Asc",
                "PopupFormAlias": {
                  "$type": "Comindware.Platform.Contracts.GlobalAlias, Comindware.Platform.Contracts",
                  "Type": "Undefined"
                },
                "AllowEdit": false,
                "GlobalAlias": {
                  "$type": "Comindware.Platform.Contracts.GlobalAlias, Comindware.Platform.Contracts",
                  "Type": "FormComponent",
                  "Alias": "Istoriyasoglasovaniy2_Kommentariy"
                },
                "AccessType": "Editable",
                "Width": 200,
                "Type": "FieldComponent"
              }
            ]
          },
          "ChildPropertyAlias": {
            "$type": "Comindware.Platform.Contracts.GlobalAlias, Comindware.Platform.Contracts",
            "Type": "Undefined"
          },
          "OrderPropertyAlias": {
            "$type": "Comindware.Platform.Contracts.GlobalAlias, Comindware.Platform.Contracts",
            "Type": "Undefined"
          },
          "NumberPropertyAlias": {
            "$type": "Comindware.Platform.Contracts.GlobalAlias, Comindware.Platform.Contracts",
            "Type": "Undefined"
          },
          "PrecedentPropertyAlias": {
            "$type": "Comindware.Platform.Contracts.GlobalAlias, Comindware.Platform.Contracts",
            "Type": "Undefined"
          },
          "SortingDirection": "Asc",
          "ShowArchiveRecords": false,
          "PopupFormAlias": {
            "$type": "Comindware.Platform.Contracts.GlobalAlias, Comindware.Platform.Contracts",
            "Type": "Undefined"
          },
          "GlobalAlias": {
            "$type": "Comindware.Platform.Contracts.GlobalAlias, Comindware.Platform.Contracts",
            "Type": "FormComponent",
            "Alias": "Istoriyasoglasovaniy2"
          },
          "AccessType": "Readonly",
          "Width": 0,
          "Type": "FieldComponent",
          "Toolbar": {
            "$type": "System.Nullable`1[[Comindware.Platform.Contracts.GlobalAlias, Comindware.Platform.Contracts]], mscorlib",
            "Type": "Toolbar",
            "Owner": "Soglasovaniyakomandirovok",
            "Alias": "toolbar8dc7295b"
          }
        },
        {
          "$type": "Comindware.Platform.Contracts.SubFormModel, Comindware.Platform.Contracts",
          "Name": "Стартовая форма",
          "DataSourcePropertyPath": {
            "$type": "Comindware.Platform.Contracts.GlobalAlias[], Comindware.Platform.Contracts",
            "$values": [
              {
                "$type": "Comindware.Platform.Contracts.GlobalAlias, Comindware.Platform.Contracts",
                "Type": "Form",
                "Owner": "Zayavkinakomandirovku",
                "Alias": "Startovayaforma"
              }
            ]
          },
          "GlobalAlias": {
            "$type": "Comindware.Platform.Contracts.GlobalAlias, Comindware.Platform.Contracts",
            "Type": "FormComponent",
            "Alias": "Startovayaforma"
          },
          "AccessType": "Editable",
          "Width": 0,
          "Type": "SubForm"
        }
      ]
    },
    "GlobalAlias": {
      "$type": "Comindware.Platform.Contracts.GlobalAlias, Comindware.Platform.Contracts",
      "Type": "FormComponent",
      "Alias": "root"
    },
    "AccessType": "Undefined",
    "Width": 0,
    "Type": "VerticalLayout"
  },
  "Name": "Форма внесения корректировок",
  "Origination": "Undefined"
}