{
  "$type": "Comindware.Platform.Contracts.UserCommandConfigurationModel, Comindware.Platform.Contracts",
  "GlobalAlias": {
    "$type": "Comindware.Platform.Contracts.GlobalAlias, Comindware.Platform.Contracts",
    "Type": "UserCommand",
    "Owner": "Uvolneniesotrudnika",
    "Alias": "cancelProcess"
  },
  "Name": "Остановить процесс",
  "IsSystem": false,
  "IsDisabled": false,
  "IsPrepare": false,
  "SkipValidation": false,
  "Context": "Process",
  "Multiplicity": "OneByOne",
  "Kind": "Cancel",
  "ResultType": "DataChange",
  "ConditionRule": "EQUALS($cmw.process.status, ID(\"cmw.process.ActiveStatus\"))",
  "RelatedEntityGlobalAlias": {
    "$type": "Comindware.Platform.Contracts.GlobalAlias, Comindware.Platform.Contracts",
    "Type": "Undefined"
  },
  "LockStateChangeType": "Undefined",
  "LockStateVisibilityType": "Undefined",
  "IsConfirmationActive": false,
  "NavigationTarget": "Undefined"
}