{
  "$type": "Comindware.Platform.Contracts.FlowActivityModel, Comindware.Platform.Contracts",
  "GlobalAlias": {
    "$type": "Comindware.Platform.Contracts.GlobalAlias, Comindware.Platform.Contracts",
    "Type": "Activity",
    "Owner": "Podgotovkazayavleniyanapriyom",
    "Alias": "flow22"
  },
  "TargetActivity": {
    "$type": "Comindware.Platform.Contracts.ConnectorModel, Comindware.Platform.Contracts",
    "Target": {
      "$type": "Comindware.Platform.Contracts.GlobalAlias, Comindware.Platform.Contracts",
      "Type": "Activity",
      "Owner": "Podgotovkazayavleniyanapriyom",
      "Alias": "exclusiveGate7"
    },
    "TargetConnectorIndex": 0
  },
  "SourceActivity": {
    "$type": "Comindware.Platform.Contracts.ConnectorModel, Comindware.Platform.Contracts",
    "Target": {
      "$type": "Comindware.Platform.Contracts.GlobalAlias, Comindware.Platform.Contracts",
      "Type": "Activity",
      "Owner": "Podgotovkazayavleniyanapriyom",
      "Alias": "exclusiveGate2"
    },
    "TargetConnectorIndex": 20
  },
  "Points": {
    "$type": "Comindware.Platform.Contracts.VectorModel[], Comindware.Platform.Contracts",
    "$values": [
      {
        "$type": "Comindware.Platform.Contracts.VectorModel, Comindware.Platform.Contracts",
        "X": 160.0,
        "Y": -147.0
      },
      {
        "$type": "Comindware.Platform.Contracts.VectorModel, Comindware.Platform.Contracts",
        "X": 160.0,
        "Y": -127.0
      },
      {
        "$type": "Comindware.Platform.Contracts.VectorModel, Comindware.Platform.Contracts",
        "X": 160.0,
        "Y": 340.0
      },
      {
        "$type": "Comindware.Platform.Contracts.VectorModel, Comindware.Platform.Contracts",
        "X": 0.0,
        "Y": 340.0
      },
      {
        "$type": "Comindware.Platform.Contracts.VectorModel, Comindware.Platform.Contracts",
        "X": 0.0,
        "Y": 359.36184266188
      },
      {
        "$type": "Comindware.Platform.Contracts.VectorModel, Comindware.Platform.Contracts",
        "X": 0.0,
        "Y": 379.36184266188
      }
    ]
  },
  "SequenceDefinition": {
    "$type": "Comindware.Platform.Contracts.SequenceFlowDefinitionModel, Comindware.Platform.Contracts",
    "IsDefault": false,
    "Condition": {
      "$type": "Comindware.Platform.Contracts.ConditionRuleModel, Comindware.Platform.Contracts",
      "Type": "Condition",
      "Definition": {
        "$type": "Comindware.Platform.Contracts.ExpressionRuleDefinitionModel, Comindware.Platform.Contracts",
        "Expression": "$DokumentyprinyatyRef->Kod == \"yes\"",
        "Type": "Expression"
      }
    }
  },
  "IsTitleSet": false,
  "Position": {
    "$type": "Comindware.Platform.Contracts.VectorModel, Comindware.Platform.Contracts",
    "X": 1260.0,
    "Y": 670.0
  },
  "Size": {
    "$type": "Comindware.Platform.Contracts.DimensionsModel, Comindware.Platform.Contracts",
    "Width": 0.0,
    "Height": 0.0
  },
  "Owner": {
    "$type": "Comindware.Platform.Contracts.GlobalAlias, Comindware.Platform.Contracts",
    "Type": "Activity",
    "Owner": "Podgotovkazayavleniyanapriyom",
    "Alias": "lane2"
  },
  "OwnerEmbeddedProcessActivityAlias": {
    "$type": "Comindware.Platform.Contracts.GlobalAlias, Comindware.Platform.Contracts",
    "Type": "Undefined"
  },
  "MountedOnAlias": {
    "$type": "Comindware.Platform.Contracts.GlobalAlias, Comindware.Platform.Contracts",
    "Type": "Undefined"
  },
  "Type": "ExecutionFlow"
}